2020-11-05 10:41:36 [INFO ] tn.esprit.spring.Timesheet.TimesheetTest - delete All entreprise
2020-11-05 10:41:37 [INFO ] tn.esprit.spring.Timesheet.TimesheetTest - delete All timesheet
2020-11-05 10:41:37 [INFO ] tn.esprit.spring.Timesheet.TimesheetTest - delete All mission
2020-11-05 10:41:37 [INFO ] tn.esprit.spring.Timesheet.TimesheetTest - delete All employer
2020-11-05 10:41:37 [INFO ] tn.esprit.spring.Timesheet.TimesheetTest - delete All departement
2020-11-05 10:41:37 [INFO ] tn.esprit.spring.Timesheet.TimesheetTest - delete All entreprise
2020-11-05 10:41:37 [INFO ] tn.esprit.spring.Timesheet.TimesheetTest - delete All timesheet
2020-11-05 10:41:37 [INFO ] tn.esprit.spring.Timesheet.TimesheetTest - delete All mission
2020-11-05 10:41:37 [INFO ] tn.esprit.spring.Timesheet.TimesheetTest - delete All employer
2020-11-05 10:41:37 [INFO ] tn.esprit.spring.Timesheet.TimesheetTest - delete All departement
2020-11-05 10:41:37 [INFO ] tn.esprit.spring.Timesheet.TimesheetTest - delete All entreprise
2020-11-05 10:41:37 [INFO ] tn.esprit.spring.Timesheet.TimesheetTest - delete All timesheet
