2020-11-05 10:21:13 [INFO ] tn.esprit.spring.Timesheet.TimesheetTest - delete All departement
2020-11-05 10:21:13 [INFO ] tn.esprit.spring.Timesheet.TimesheetTest - delete All entreprise
2020-11-05 10:23:31 [INFO ] tn.esprit.spring.Timesheet.TimesheetTest - delete All timesheet
2020-11-05 10:23:31 [INFO ] tn.esprit.spring.Timesheet.TimesheetTest - delete All mission
2020-11-05 10:23:31 [INFO ] tn.esprit.spring.Timesheet.TimesheetTest - delete All employer
2020-11-05 10:23:31 [INFO ] tn.esprit.spring.Timesheet.TimesheetTest - delete All departement
2020-11-05 10:23:31 [INFO ] tn.esprit.spring.Timesheet.TimesheetTest - delete All entreprise
2020-11-05 10:23:32 [INFO ] tn.esprit.spring.Timesheet.TimesheetTest - delete All timesheet
2020-11-05 10:23:32 [INFO ] tn.esprit.spring.Timesheet.TimesheetTest - delete All mission
2020-11-05 10:23:32 [INFO ] tn.esprit.spring.Timesheet.TimesheetTest - delete All employer
2020-11-05 10:23:32 [INFO ] tn.esprit.spring.Timesheet.TimesheetTest - delete All departement
2020-11-05 10:23:32 [INFO ] tn.esprit.spring.Timesheet.TimesheetTest - delete All entreprise
2020-11-05 10:25:23 [INFO ] tn.esprit.spring.Timesheet.TimesheetTest - delete All timesheet
